module bitbucket.org/ide8io/ide8/backend

require (
	github.com/BurntSushi/toml v0.3.0 // indirect
	github.com/Nvveen/Gotty v0.0.0-20120604004816-cd527374f1e5 // indirect
	github.com/TheThingsNetwork/go-app-sdk v0.0.0-20180723080648-cc04392958e8
	github.com/TheThingsNetwork/ttn v2.9.4+incompatible
	github.com/armon/go-metrics v0.0.0-20180713145231-3c58d8115a78 // indirect
	github.com/armon/go-radix v0.0.0-20170727155443-1fca145dffbc // indirect
	github.com/asaskevich/govalidator v0.0.0-20180720115003-f9ffefc3facf
	github.com/boltdb/bolt v1.3.1
	github.com/containerd/console v0.0.0-20180705162025-4d8a41f4ce5b // indirect
	github.com/containerd/continuity v0.0.0-20180712174259-0377f7d76720 // indirect
	github.com/coreos/etcd v3.3.9+incompatible // indirect
	github.com/coreos/go-semver v0.2.0 // indirect
	github.com/coreos/go-systemd v0.0.0-20180705093442-88bfeed483d3 // indirect
	github.com/coreos/pkg v0.0.0-20180108230652-97fdf19511ea // indirect
	github.com/cyphar/filepath-securejoin v0.2.1 // indirect
	github.com/cyrus-and/gdb v0.0.0-20180213171718-0306a029f42f
	github.com/davecgh/go-spew v1.1.0 // indirect
	github.com/deckarep/golang-set v0.0.0-20180603214616-504e848d77ea // indirect
	github.com/docker/docker v0.0.0-20180725224437-8239526f17aa // indirect
	github.com/docker/go-connections v0.4.0 // indirect
	github.com/docker/go-events v0.0.0-20170721190031-9461782956ad // indirect
	github.com/docker/go-units v0.3.3 // indirect
	github.com/docker/libkv v0.2.1 // indirect
	github.com/docker/libnetwork v0.0.0-20180725171410-f30a35b091cc // indirect
	github.com/fsouza/go-dockerclient v1.2.2
	github.com/godbus/dbus v4.1.0+incompatible // indirect
	github.com/golang/protobuf v1.1.0
	github.com/google/go-github v15.0.0+incompatible
	github.com/google/go-querystring v0.0.0-20170111101155-53e6ce116135 // indirect
	github.com/gorilla/context v1.1.1
	github.com/gorilla/sessions v1.1.1
	github.com/gorilla/websocket v1.2.0
	github.com/hashicorp/consul v1.2.1 // indirect
	github.com/hashicorp/errwrap v0.0.0-20180715044906-d6c0cd880357 // indirect
	github.com/hashicorp/go-cleanhttp v0.0.0-20171218145408-d5fe4b57a186 // indirect
	github.com/hashicorp/go-immutable-radix v0.0.0-20180129170900-7f3cd4390caa // indirect
	github.com/hashicorp/go-msgpack v0.0.0-20150518234257-fa3f63826f7c // indirect
	github.com/hashicorp/go-multierror v0.0.0-20180717150148-3d5d8f294aa0 // indirect
	github.com/hashicorp/go-rootcerts v0.0.0-20160503143440-6bb64b370b90 // indirect
	github.com/hashicorp/go-sockaddr v0.0.0-20180320115054-6d291a969b86 // indirect
	github.com/hashicorp/golang-lru v0.0.0-20180201235237-0fb14efe8c47 // indirect
	github.com/hashicorp/memberlist v0.1.0 // indirect
	github.com/hashicorp/serf v0.8.1 // indirect
	github.com/ishidawataru/sctp v0.0.0-20180713221428-42f77ff5ed8d // indirect
	github.com/kr/pty v1.1.2
	github.com/mattn/go-zglob v0.0.0-20180627001149-c436403c742d
	github.com/miekg/dns v1.0.8 // indirect
	github.com/mitchellh/mapstructure v0.0.0-20180715050151-f15292f7a699 // indirect
	github.com/mrunalp/fileutils v0.0.0-20171103030105-7d4729fb3618 // indirect
	github.com/oklog/ulid v1.0.0
	github.com/opencontainers/go-digest v1.0.0-rc1 // indirect
	github.com/opencontainers/image-spec v1.0.1 // indirect
	github.com/opencontainers/runc v0.0.0-20180725142734-b4e2ecb452d9 // indirect
	github.com/opencontainers/runtime-spec v1.0.1 // indirect
	github.com/opencontainers/selinux v1.0.0-rc1 // indirect
	github.com/pmezard/go-difflib v1.0.0 // indirect
	github.com/samuel/go-zookeeper v0.0.0-20180130194729-c4fab1ac1bec // indirect
	github.com/sean-/seed v0.0.0-20170313163322-e2103e2c3529 // indirect
	github.com/sirupsen/logrus v1.0.6 // indirect
	github.com/stretchr/testify v1.2.2
	github.com/syndtr/gocapability v0.0.0-20180223013746-33e07d32887e // indirect
	github.com/tpiha/go-bitbucket v0.0.0-20150910202526-3f22baad5a3c
	github.com/ugorji/go v1.1.1 // indirect
	github.com/urfave/cli v1.20.0 // indirect
	github.com/vishvananda/netlink v1.0.0 // indirect
	github.com/vishvananda/netns v0.0.0-20180720170159-13995c7128cc // indirect
	golang.org/x/crypto v0.0.0-20180723164146-c126467f60eb // indirect
	golang.org/x/net v0.0.0-20180724234803-3673e40ba225
	golang.org/x/oauth2 v0.0.0-20180724155351-3d292e4d0cdc
	golang.org/x/sys v0.0.0-20180724212812-e072cadbbdc8 // indirect
	google.golang.org/genproto v0.0.0-20180722052100-02b4e9547331 // indirect
	google.golang.org/grpc v1.13.0
	gopkg.in/yaml.v2 v2.2.1
)
